Peter Gao - Wisconsin Districts
…
library(poliscidata)  
library(dplyr)
library(stringr)
library(ggplot2)
library(readr)
library(viridis)
library(skimr)
library(sf)
library(ggplot2)
devtools::install_github("baumer-lab/fec16")
library(fec16)
print(results_house, width = Inf)

# A tibble: 2,110 × 13
   state district_id cand_id   incumbent party primary_votes primary_percent
   <chr> <chr>       <chr>     <lgl>     <chr>         <dbl>           <dbl>
 1 AL    01          H4AL01123 TRUE      REP           71310          0.601 
 2 AL    01          H6AL01060 FALSE     REP           47319          0.399 
 3 AL    02          H0AL02087 TRUE      REP           78689          0.664 
 4 AL    02          H6AL02142 FALSE     REP           33015          0.278 
 5 AL    02          H6AL02159 FALSE     REP            6856          0.0578
 6 AL    02          H6AL02167 FALSE     DEM              NA         NA     
 7 AL    03          H2AL03032 TRUE      REP           77432          0.760 
 8 AL    03          H6AL03157 FALSE     REP           24474          0.240 
 9 AL    03          H4AL03061 FALSE     DEM              NA         NA     
10 AL    04          H6AL04098 TRUE      REP           86660          0.812 
   runoff_votes runoff_percent general_votes general_percent won   footnotes
          <dbl>          <dbl>         <dbl>           <dbl> <lgl> <chr>    
 1           NA             NA        208083           0.964 TRUE  <NA>     
 2           NA             NA            NA          NA     FALSE <NA>     
 3           NA             NA        134886           0.488 TRUE  <NA>     
 4           NA             NA            NA          NA     FALSE <NA>     
 5           NA             NA            NA          NA     FALSE <NA>     
 6           NA             NA        112089           0.405 FALSE <NA>     
 7           NA             NA        192164           0.669 TRUE  <NA>     
 8           NA             NA            NA          NA     FALSE <NA>     
 9           NA             NA         94549           0.329 FALSE <NA>     
10           NA             NA        235925           0.985 TRUE  <NA>     
# ℹ 2,100 more rows

results_house |>
  group_by(state, district_id) |>
  summarize(N = n())

# A tibble: 445 × 3
# Groups:   state [56]
   state district_id     N
   <chr> <chr>       <int>
 1 AK    00             12
 2 AL    01              2
 3 AL    02              4
 4 AL    03              3
 5 AL    04              2
 6 AL    05              2
 7 AL    06              2
 8 AL    07              1
 9 AR    01              2
10 AR    02              4
# ℹ 435 more rows

# To install fec 12 the first time, uncomment the code below (you might have to install devtools as well):
devtools::install_github("baumer-lab/fec12")
library(fec12)
print(results_house, width = Inf)

# A tibble: 2,343 × 13
   state district_id cand_id   incumbent party primary_votes primary_percent
   <chr> <chr>       <chr>     <lgl>     <chr>         <dbl>           <dbl>
 1 AL    01          H2AL01077 TRUE      R             48702          0.555 
 2 AL    01          H2AL01176 FALSE     R             21308          0.243 
 3 AL    01          H2AL01184 FALSE     R             13809          0.158 
 4 AL    01          H0AL01030 FALSE     R              3854          0.0440
 5 AL    02          H0AL02087 TRUE      R                NA         NA     
 6 AL    02          H2AL02141 FALSE     D                NA         NA     
 7 AL    03          H2AL03032 TRUE      R                NA         NA     
 8 AL    03          H2AL03099 FALSE     D                NA         NA     
 9 AL    04          H6AL04098 TRUE      R                NA         NA     
10 AL    04          H2AL04055 FALSE     D             10971          0.514 
   runoff_votes runoff_percent general_votes general_percent won   footnotes
          <dbl>          <dbl>         <dbl>           <dbl> <lgl> <chr>    
 1           NA             NA        196374           0.979 TRUE  <NA>     
 2           NA             NA            NA          NA     FALSE <NA>     
 3           NA             NA            NA          NA     FALSE <NA>     
 4           NA             NA            NA          NA     FALSE <NA>     
 5           NA             NA        180591           0.636 TRUE  <NA>     
 6           NA             NA        103092           0.363 FALSE <NA>     
 7           NA             NA        175306           0.640 TRUE  <NA>     
 8           NA             NA         98141           0.358 FALSE <NA>     
 9           NA             NA        199071           0.740 TRUE  <NA>     
10           NA             NA         69706           0.259 FALSE <NA>     
# ℹ 2,333 more rows

results_house |>
  group_by(state, district_id) |>
  summarize(N = n())

# A tibble: 445 × 3
# Groups:   state [56]
   state district_id     N
   <chr> <chr>       <int>
 1 AK    00             10
 2 AL    01              4
 3 AL    02              2
 4 AL    03              2
 5 AL    04              3
 6 AL    05              3
 7 AL    06              6
 8 AL    07              3
 9 AR    01              6
10 AR    02              4
# ℹ 435 more rows
…
